INDEX VERSION 1.126+/home/salman/Anirudh App Backup/SachinTendulkarWS/.metadata/.plugins/org.eclipse.jdt.core
3848462231.index
1628266423.index
622312180.index
1293159462.index
1867064689.index
927881883.index
3199506761.index
2746960901.index
1415693123.index
1181365314.index
911522120.index
96958257.index
3518183928.index
2760310328.index
2288590004.index
3756377160.index
4055090749.index
3923104358.index
3754502269.index
974906815.index
3298393295.index
628181194.index
3901974123.index
3069897855.index
4266096444.index
2790065741.index
414764765.index
228919326.index
2321829293.index
3203622880.index
1232228413.index
3839320345.index
1000222586.index
3175460435.index
2637914682.index
1503108795.index
2795031245.index
3227864189.index
1641663287.index
2327371057.index
2667444369.index
2538688718.index
420770999.index
2091128372.index
3326172305.index
398389361.index
2078007240.index
1682092536.index
2865777207.index
3255618888.index
2998435575.index
433652938.index
2265528707.index
1205556876.index
4112868659.index
4035005045.index
1362444522.index
2981211031.index
2924041736.index
